{
  "id" : "6311b743-4689-4ead-a795-24321f497cdf",
  "request" : {
    "urlPath" : "/validate/even",
    "method" : "GET",
    "queryParameters" : {
      "num" : {
        "equalTo" : "2"
      }
    }
  },
  "response" : {
    "status" : 200,
    "body" : "Even",
    "transformers" : [ "response-template" ]
  },
  "uuid" : "6311b743-4689-4ead-a795-24321f497cdf"
}
